{
  "type": "service_account",
  "project_id": "full-firebase",
  "private_key_id": "308677fbff3ba757b9e460ca728a7a9bceb2b4e9",
  "private_key": "-----BEGIN PRIVATE KEY-----\nMIIEvgIBADANBgkqhkiG9w0BAQEFAASCBKgwggSkAgEAAoIBAQD2T6En6RfJWPEL\nCvI70ITlRDic4EWyUeBJoRaP6hH9Tyhr+opQRWaJRFYX53lIV3qMI9hro4JSGEH3\nLqounpAwGPwAxEiDF8w/YVmty8iAiJ3jWsgx6p5OZhv/JfVKv7SGV1QLVgGzW5aM\nPXTJJAPtptllNCKFA4ufL4vCCdMq3QYBoZLCxKIk5V0p0US5k4zpebOGroDNaSvn\n55UPkZv4qEVnq6lKcKaLjdIZ2NbNVxZaJHEjEhGW8rTlvqqJvmPehpD1HTohRbig\nGgx3x7LWvH3NNunmVVQ7TrxouiDGYDXfkc35+vqGqpZ1GAbwgO5oXP4mSUrq2Ibs\n1Nw6W/bdAgMBAAECggEARlKPyUxEbUkGcMesRyWOe8KRg0CIxZOYvIzQW0BR6Ids\nHAAI80gNMU2gYuzEdMH9C/vD819YesXQN5lMH0lIE2Net31S0pK9zq6lovgWg5P9\nuAaYN6ArmGiQv7T/plq7WMugBCiHDcUtY1a8fBzbPkOvt7Q90sojV8yEU17oukiW\n5lIecdVJG2lF5vKXhGZvB0NwtLYVtthErYPogk0y/RalUgfm0O4poaydxC8q0EL2\nkvShuMjXfXbt+ZDHtZywPXB3WFEU4ch2MMKuztbkaEiz15m041gblKoxAgFV9RaC\nb4Ouvhi+fAz1IlE0NVvuIrVU7Rn2Bk+257190oCY5QKBgQD7qUAYQvY4YQNkpNTG\nrsm9rW01jrz7yyhEW4bfDgNByyICzoFhs5sn29sWOSQzpRFok2X4fixuW1428A+i\n4vMPPpUkLT0j+48vRvCRs/5Vbbhf7OBgauHBUft7JA0xQP/IT+3FYxB8fbjiql3y\nwjEluHSY3X9/sq47Z7bPsQYgPwKBgQD6jsQBGfL1QVNqeNuDS8qK3uySp0BHohyg\nfPNMHqzGzqxwwFxGZrOjcBaQW9Q3BjUjyGyQE0ml0/1NXm9S3mDAXfy3IW410pBn\n3awCfqSVuNkLcVuGMqoVSc/0jUCzEa1TfziSwFL44vUbRvdyumJJ46VcIBKiSx45\nha/EGurh4wKBgQCRcIAFRXWsoYxndsctR8h5oSezQxm+3usXjlnEwQFq3a17N8MY\nJsdtYqccEcv1ONl1uXG+CZU99fneACDZPxW/YqiorqheCjz20qWnXwGGd5GNhoUp\n07tCkVGoGe6x32Gzb1X3tEfL2pCmFlWTPV1P8mkYCzJrJ2WAGXFSWHk02wKBgFFj\nHnfdHfZcieQD7gnwDJKfZukcOt0J45KeA8muDSFm8MyPL2oO4jsspaeurHhTI9/D\nsr/6A+pBuf3vtumMIpFZ9kTmLw58nzud3cnRqVSY/qeg4sHsoyLXHx2o5GNGUq7U\nnGPO5STDVCrQGoDB2jt2HriWEnd1PxQgQL/KnpFRAoGBAN3/mR++Dq4Gkxt2s2Oq\n1vaIY1MclEquB6uqkbfPKyITeDy9JJ8dAgw86ZavpJaIVtf8bqODutfJ8c+ZPMAA\nriyZwW/4W5Qh47BOdDFe8Pjm+luGEmw0X1JSb3f66Yn/wsnLNJFBm/ocYduX1tZz\nJ47SdpknvNRqrCs/8M7H2i7c\n-----END PRIVATE KEY-----\n",
  "client_email": "firebase-adminsdk-pgerj@full-firebase.iam.gserviceaccount.com",
  "client_id": "102691555111870590686",
  "auth_uri": "https://accounts.google.com/o/oauth2/auth",
  "token_uri": "https://accounts.google.com/o/oauth2/token",
  "auth_provider_x509_cert_url": "https://www.googleapis.com/oauth2/v1/certs",
  "client_x509_cert_url": "https://www.googleapis.com/robot/v1/metadata/x509/firebase-adminsdk-pgerj%40full-firebase.iam.gserviceaccount.com"
}
